Web Scraping with R
…
5.3 tidytext

A better way would be to use the tidytext package. First we need to create a data frame out of the text. Then we “tokenize” the text which means we have one line per word.

library(tidytext)

text_df <- data_frame(line = 1:length(lincoln_doc), text = lincoln_doc)
token_text <- text_df %>%
  unnest_tokens(word, text)

token_text %>% count(word,sort=TRUE)

## # A tibble: 339 x 2
##    word      n
##    <chr> <int>
##  1 the      58
##  2 to       27
##  3 and      24
##  4 of       22
##  5 it       13
##  6 that     12
##  7 war      12
##  8 all      10
##  9 for       9
## 10 in        9
## # ... with 329 more rows
…
## Joining, by = "word"

# This could also be done by the following. I point this out only because some people react
# negatively to "joins" although fully understanding what joins are can only help you since
# much of what the dplyr package does is based on SQL type joins. 

tidy_text <- token_text %>%
  filter(!word %in% stop_words$word)

tidy_text %>% count(word,sort=TRUE)

## # A tibble: 193 x 2
##    word           n
##    <chr>      <int>
##  1 war           12
##  2 god            5
##  3 union          4
##  4 offenses       3
##  5 woe            3
##  6 address        2
##  7 ago            2
##  8 altogether     2
##  9 answered       2
## 10 cease          2
## # ... with 183 more rows

tidy_text %>% count(word,sort=TRUE)

## # A tibble: 193 x 2
##    word           n
##    <chr>      <int>
##  1 war           12
##  2 god            5
##  3 union          4
##  4 offenses       3
##  5 woe            3
##  6 address        2
##  7 ago            2
##  8 altogether     2
##  9 answered       2
## 10 cease          2
## # ... with 183 more rows
…
5.4 Back To The PubMed Example

We have around 935 abstracts that we can now mess with

# Create a data frame out of the cleaned up abstracts

text_df <- data_frame(line = 1:length(my_abstracts), text = my_abstracts)
token_text <- text_df %>%
  unnest_tokens(word, text)

# Many of these words aren't helpful 
token_text %>% count(total=word,sort=TRUE)

## # A tibble: 6,942 x 2
##    total        n
##    <chr>    <int>
##  1 the       3087
##  2 of        2929
##  3 and       2880
##  4 in        1919
##  5 to        1863
##  6 a         1376
##  7 dialysis  1335
##  8 patients  1324
##  9 home      1236
## 10 with      1035
## # ... with 6,932 more rows
…
## Joining, by = "word"

# This could also be done by the following. I point this out only because some people react
# negatively to "joins" although fully understanding what joins are can only help you since
# much of what the dplyr package does is based on SQL type joins. 

tidy_text <- token_text %>%
  filter(!word %in% stop_words$word)

# Arrange the text by descending word frequency 

tidy_text %>%
  count(word, sort = TRUE) 

## # A tibble: 6,465 x 2
##    word             n
##    <chr>        <int>
##  1 dialysis      1335
##  2 patients      1324
##  3 home          1236
##  4 hemodialysis   665
##  5 hd             472
##  6 hhd            406
##  7 patient        380
##  8 pd             307
##  9 renal          277
## 10 study          270
## # ... with 6,455 more rows

Some of the most frequently occurring words are in fact “dialysis”, “patients” so maybe we should consider them to be stop words also since we already know quite well that the overall theme is, well, dialysis and kidneys. There are also synonymns and abbreviations that are somewhat redundant such as “pdd”,“pd”,“hhd” so let’s eliminate them also.

tidy_text <- token_text %>%
   filter(!word %in% c(stop_words$word,"dialysis","patients","home","kidney",
                       "hemodialysis","haemodialysis","patient","hhd",
                       "pd","peritoneal","hd","renal","study","care",
                       "ci","chd","nhd","disease"))

tidy_text %>%
  count(word, sort = TRUE) 

## # A tibble: 6,447 x 2
##    word             n
##    <chr>        <int>
##  1 treatment      228
##  2 therapy        191
##  3 survival       188
##  4 clinical       180
##  5 center         178
##  6 conventional   177
##  7 nocturnal      177
##  8 quality        176
##  9 compared       172
## 10 outcomes       165
## # ... with 6,437 more rows
…
5.5 BiGrams

Let’s look at bigrams. We need to go back to the cleaned abstracts and pair words to get phrase that might be suggestive of some sentiment

text_df <- data_frame(line = 1:length(my_abstracts), text = my_abstracts)
dialysis_bigrams <- text_df %>%
  unnest_tokens(bigram, text, token = "ngrams", n = 2)

dialysis_bigrams %>%
  count(bigram, sort = TRUE)

## # A tibble: 41,630 x 2
##    bigram                  n
##    <chr>               <int>
##  1 in the                382
##  2 of the                316
##  3 home dialysis         280
##  4 home hemodialysis     267
##  5 peritoneal dialysis   198
##  6 of home               189
##  7 associated with       172
##  8 home hd               153
##  9 home haemodialysis    138
## 10 in center             138
## # ... with 41,620 more rows
…
11.3 tidytext

A better way would be to use the tidytext package. First we need to create a data frame out of the text. Then we “tokenize” the text which means we have one line per word.

library(tidytext)

text_df <- data_frame(line = 1:length(lincoln_doc), text = lincoln_doc)
token_text <- text_df %>%
  unnest_tokens(word, text)

token_text %>% count(word,sort=TRUE)

## # A tibble: 339 x 2
##    word      n
##    <chr> <int>
##  1 the      58
##  2 to       27
##  3 and      24
##  4 of       22
##  5 it       13
##  6 that     12
##  7 war      12
##  8 all      10
##  9 for       9
## 10 in        9
## # ... with 329 more rows
…
## Joining, by = "word"

# This could also be done by the following. I point this out only because some people react
# negatively to "joins" although fully understanding what joins are can only help you since
# much of what the dplyr package does is based on SQL type joins. 

tidy_text <- token_text %>%
  filter(!word %in% stop_words$word)

tidy_text %>% count(word,sort=TRUE)

## # A tibble: 193 x 2
##    word           n
##    <chr>      <int>
##  1 war           12
##  2 god            5
##  3 union          4
##  4 offenses       3
##  5 woe            3
##  6 address        2
##  7 ago            2
##  8 altogether     2
##  9 answered       2
## 10 cease          2
## # ... with 183 more rows

tidy_text %>% count(word,sort=TRUE)

## # A tibble: 193 x 2
##    word           n
##    <chr>      <int>
##  1 war           12
##  2 god            5
##  3 union          4
##  4 offenses       3
##  5 woe            3
##  6 address        2
##  7 ago            2
##  8 altogether     2
##  9 answered       2
## 10 cease          2
## # ... with 183 more rows
…
11.4 Back To The PubMed Example

We have around 935 abstracts that we can now mess with

# Create a data frame out of the cleaned up abstracts

text_df <- data_frame(line = 1:length(my_abstracts), text = my_abstracts)
token_text <- text_df %>%
  unnest_tokens(word, text)

# Many of these words aren't helpful 
token_text %>% count(total=word,sort=TRUE)

## # A tibble: 6,942 x 2
##    total        n
##    <chr>    <int>
##  1 the       3087
##  2 of        2929
##  3 and       2880
##  4 in        1919
##  5 to        1863
##  6 a         1376
##  7 dialysis  1335
##  8 patients  1324
##  9 home      1236
## 10 with      1035
## # ... with 6,932 more rows
…
## Joining, by = "word"

# This could also be done by the following. I point this out only because some people react
# negatively to "joins" although fully understanding what joins are can only help you since
# much of what the dplyr package does is based on SQL type joins. 

tidy_text <- token_text %>%
  filter(!word %in% stop_words$word)

# Arrange the text by descending word frequency 

tidy_text %>%
  count(word, sort = TRUE) 

## # A tibble: 6,465 x 2
##    word             n
##    <chr>        <int>
##  1 dialysis      1335
##  2 patients      1324
##  3 home          1236
##  4 hemodialysis   665
##  5 hd             472
##  6 hhd            406
##  7 patient        380
##  8 pd             307
##  9 renal          277
## 10 study          270
## # ... with 6,455 more rows

Some of the most frequently occurring words are in fact “dialysis”, “patients” so maybe we should consider them to be stop words also since we already know quite well that the overall theme is, well, dialysis and kidneys. There are also synonymns and abbreviations that are somewhat redundant such as “pdd”,“pd”,“hhd” so let’s eliminate them also.

tidy_text <- token_text %>%
   filter(!word %in% c(stop_words$word,"dialysis","patients","home","kidney",
                       "hemodialysis","haemodialysis","patient","hhd",
                       "pd","peritoneal","hd","renal","study","care",
                       "ci","chd","nhd","disease"))

tidy_text %>%
  count(word, sort = TRUE) 

## # A tibble: 6,447 x 2
##    word             n
##    <chr>        <int>
##  1 treatment      228
##  2 therapy        191
##  3 survival       188
##  4 clinical       180
##  5 center         178
##  6 conventional   177
##  7 nocturnal      177
##  8 quality        176
##  9 compared       172
## 10 outcomes       165
## # ... with 6,437 more rows
…
11.5 BiGrams

Let’s look at bigrams. We need to go back to the cleaned abstracts and pair words to get phrase that might be suggestive of some sentiment

text_df <- data_frame(line = 1:length(my_abstracts), text = my_abstracts)
dialysis_bigrams <- text_df %>%
  unnest_tokens(bigram, text, token = "ngrams", n = 2)

dialysis_bigrams %>%
  count(bigram, sort = TRUE)

## # A tibble: 41,630 x 2
##    bigram                  n
##    <chr>               <int>
##  1 in the                382
##  2 of the                316
##  3 home dialysis         280
##  4 home hemodialysis     267
##  5 peritoneal dialysis   198
##  6 of home               189
##  7 associated with       172
##  8 home hd               153
##  9 home haemodialysis    138
## 10 in center             138
## # ... with 41,620 more rows
…
