Web Scraping with R
…
5.3 tidytext

A better way would be to use the tidytext package. First we need to create a data frame out of the text. Then we “tokenize” the text which means we have one line per word.

library(tidytext)

text_df <- data_frame(line = 1:length(lincoln_doc), text = lincoln_doc)
token_text <- text_df %>%
  unnest_tokens(word, text)

token_text %>% count(word,sort=TRUE)

## # A tibble: 339 x 2
##    word      n
##    <chr> <int>
##  1 the      58
##  2 to       27
##  3 and      24
##  4 of       22
##  5 it       13
##  6 that     12
##  7 war      12
##  8 all      10
##  9 for       9
## 10 in        9
## # ... with 329 more rows
…
## Joining, by = "word"

# This could also be done by the following. I point this out only because some people react
# negatively to "joins" although fully understanding what joins are can only help you since
# much of what the dplyr package does is based on SQL type joins. 

tidy_text <- token_text %>%
  filter(!word %in% stop_words$word)

tidy_text %>% count(word,sort=TRUE)

## # A tibble: 193 x 2
##    word           n
##    <chr>      <int>
##  1 war           12
##  2 god            5
##  3 union          4
##  4 offenses       3
##  5 woe            3
##  6 address        2
##  7 ago            2
##  8 altogether     2
##  9 answered       2
## 10 cease          2
## # ... with 183 more rows
