Chapter 5 Bag of Words Sentiment Analysis | Web Scraping with R
…
## # A tibble: 1 × 2
##    line text                                                                                                                         
##   <int> <chr>                                                                                                                        
## 1     1 "TranscriptTranscriptFellow-Countrymen:  At this second appearing to take the oath of the Presidential office there is less …

The next step is to breakup each of text lines (we have only 1) into invdividual rows, each with it’s own line. We also want to count the number of times that each word appears. This is known as tokenizing the data frame.

token_text <- text_df %>%
  unnest_tokens(word, text)

# Let's now count them

token_text %>% count(word,sort=TRUE)

## # A tibble: 339 × 2
##    word      n
##    <chr> <int>
##  1 the      58
##  2 to       27
##  3 and      24
##  4 of       22
##  5 it       13
##  6 that     12
##  7 war      12
##  8 all      10
##  9 for       9
## 10 in        9
## # … with 329 more rows

But we need to get rid of the “stop words.” It’s a good thing that the tidytext package has a way to filter out the common words that do not significantly contribute to the meaning of the overall text. The stop_words data frame is built into tidytext. Take a look to see some of the words contained therein:

data(stop_words)

# Sample 40 random stop words

stop_words %>% sample_n(40)

## # A tibble: 40 × 2
##    word     lexicon 
##    <chr>    <chr>   
##  1 sub      SMART   
##  2 yourself snowball
##  3 took     onix    
##  4 old      onix    
##  5 this     onix    
##  6 above    SMART   
##  7 about    SMART   
##  8 four     onix    
##  9 others   SMART   
## 10 come     onix    
## # … with 30 more rows
…
tidy_text <- token_text %>%
  anti_join(stop_words)

## Joining, by = "word"

# This could also be done by the following. I point this out only because some people react
# negatively to "joins" although fully understanding what joins are can only help you since
# much of what the dplyr package does is based on SQL type joins. 

tidy_text <- token_text %>%
  filter(!word %in% stop_words$word)

tidy_text %>% count(word,sort=TRUE)

## # A tibble: 193 × 2
##    word           n
##    <chr>      <int>
##  1 war           12
##  2 god            5
##  3 union          4
##  4 offenses       3
##  5 woe            3
##  6 address        2
##  7 ago            2
##  8 altogether     2
##  9 answered       2
## 10 cease          2
## # … with 183 more rows

tidy_text %>% count(word,sort=TRUE)

## # A tibble: 193 × 2
##    word           n
##    <chr>      <int>
##  1 war           12
##  2 god            5
##  3 union          4
##  4 offenses       3
##  5 woe            3
##  6 address        2
##  7 ago            2
##  8 altogether     2
##  9 answered       2
## 10 cease          2
## # … with 183 more rows
…
5.4 Back To The PubMed Example

We have around 935 abstracts that we mess with based on our work using the easyPubMed package

# Create a data frame out of the cleaned up abstracts
library(tidytext)
library(dplyr)
text_df <- data_frame(line = 1:length(my_abstracts), text = my_abstracts)
token_text <- text_df %>%
  unnest_tokens(word, text)

# Many of these words aren't helpful 
token_text %>% count(total=word,sort=TRUE)

## # A tibble: 6,936 × 2
##    total        n
##    <chr>    <int>
##  1 the       3062
##  2 of        2896
##  3 and       2871
##  4 in        1915
##  5 to        1884
##  6 a         1373
##  7 dialysis  1365
##  8 patients  1335
##  9 home      1281
## 10 with      1035
## # … with 6,926 more rows
…
# This could also be done by the following. I point this out only because some people react
# negatively to "joins" although fully understanding what joins are can only help you since
# much of what the dplyr package does is based on SQL type joins. 

tidy_text <- token_text %>%
  filter(!word %in% stop_words$word)

# Arrange the text by descending word frequency 

tidy_text %>%
  count(word, sort = TRUE) 

## # A tibble: 6,460 × 2
##    word             n
##    <chr>        <int>
##  1 dialysis      1365
##  2 patients      1335
##  3 home          1281
##  4 hemodialysis   674
##  5 hd             463
##  6 hhd            440
##  7 patient        395
##  8 pd             303
##  9 renal          279
## 10 study          268
## # … with 6,450 more rows

Some of the most frequently occurring words are in fact “dialysis,” “patients” so maybe we should consider them to be stop words also since we already know quite well that the overall theme is, well, dialysis and kidneys. There are also synonymns and abbreviations that are somewhat redundant such as “pdd,”“pd,”“hhd” so let’s eliminate them also.

tidy_text <- token_text %>%
   filter(!word %in% c(stop_words$word,"dialysis","patients","home","kidney",
                       "hemodialysis","haemodialysis","patient","hhd",
                       "pd","peritoneal","hd","renal","study","care",
                       "ci","chd","nhd","disease","treatment"))

tidy_text %>%
  count(word, sort = TRUE) 

## # A tibble: 6,441 × 2
##    word             n
##    <chr>        <int>
##  1 therapy        193
##  2 conventional   191
##  3 survival       191
##  4 center         186
##  5 compared       180
##  6 clinical       175
##  7 nocturnal      171
##  8 outcomes       171
##  9 quality        171
## 10 data           161
## # … with 6,431 more rows
…
# Pull out words that correspond to joy
nrc_joy <- get_sentiments("nrc") %>% 
  filter(sentiment == "joy")

nrc_joy

## # A tibble: 689 × 2
##    word          sentiment
##    <chr>         <chr>    
##  1 absolution    joy      
##  2 abundance     joy      
##  3 abundant      joy      
##  4 accolade      joy      
##  5 accompaniment joy      
##  6 accomplish    joy      
##  7 accomplished  joy      
##  8 achieve       joy      
##  9 achievement   joy      
## 10 acrobat       joy      
## # … with 679 more rows
…
5.5 BiGrams

Let’s look at bigrams. We need to go back to the cleaned abstracts and pair words to get phrase that might be suggestive of some sentiment

text_df <- data_frame(line = 1:length(my_abstracts), text = my_abstracts)
dialysis_bigrams <- text_df %>%
  unnest_tokens(bigram, text, token = "ngrams", n = 2)

dialysis_bigrams %>%
  count(bigram, sort = TRUE)

## # A tibble: 41,738 × 2
##    bigram                  n
##    <chr>               <int>
##  1 in the                382
##  2 of the                310
##  3 home dialysis         300
##  4 home hemodialysis     279
##  5 of home               195
##  6 peritoneal dialysis   193
##  7 associated with       174
##  8 home hd               153
##  9 home haemodialysis    144
## 10 in center             144
## # … with 41,728 more rows
…
bigrams_filtered <- bigrams_sep %>% 
  filter(!word1 %in% stop_list) %>%
  filter(!word2 %in% stop_list)

bigram_counts <- bigrams_filtered %>% 
  count(word1, word2, sort = TRUE)

bigrams_united <- bigrams_filtered %>%
  unite(bigram, word1, word2, sep = " ")

bigrams_united %>%  count(bigram, sort = TRUE) %>% print(n=25)

## # A tibble: 11,842 × 2
##    bigram                     n
##    <chr>                  <int>
##  1 replacement therapy       71
##  2 vascular access           65
##  3 technique failure         54
##  4 confidence interval       41
##  5 left ventricular          39
##  6 blood pressure            36
##  7 short daily               35
##  8 clinical outcomes         33
##  9 thrice weekly             30
## 10 technique survival        29
## 11 hazard ratio              26
## 12 quality improvement       26
## 13 adverse events            22
## 14 6 months                  21
## 15 access related            21
## 16 arteriovenous fistula     21
## 17 12 months                 19
## 18 ventricular mass          18
## 19 3 times                   15
## 20 buttonhole cannulation    15
## 21 cost effective            15
## 22 observational studies     15
## 23 retrospective cohort      15
## 24 cost effectiveness        14
## 25 daily life                14
## # … with 11,817 more rows
…
